<svg width="32" height="31" viewBox="0 0 32 31" fill="none" xmlns="http://www.w3.org/2000/svg">
<path d="M31.1202 10.6304L29.8414 17.9667C29.6837 18.7771 29.038 19.2698 28.2934 19.2791H9.64991L9.27976 21.3655H27.0483C27.9839 21.4366 28.6186 22.0994 28.63 22.9472C28.5619 23.8809 27.8992 24.5173 27.0483 24.5288H7.3952C6.3323 24.4332 5.69851 23.586 5.81352 22.6443L6.65483 18.0676L5.37604 5.21227L1.74157 4.06816C0.853409 3.71552 0.490911 2.91205 0.698347 2.08266C1.04326 1.21828 1.86973 0.82336 2.68384 1.03944L7.32789 2.52015C7.95352 2.75468 8.31343 3.2668 8.40476 3.86626L8.67397 6.42385L29.7404 8.77952C30.7084 8.98919 31.2339 9.75589 31.1202 10.6304ZM12.2107 27.8499C12.2107 29.1834 11.1297 30.2644 9.79613 30.2644C8.4626 30.2644 7.38158 29.1834 7.38158 27.8499C7.38158 26.5163 8.46262 25.4353 9.79613 25.4353C11.1297 25.4353 12.2107 26.5164 12.2107 27.8499ZM26.6255 27.8499C26.6255 29.1834 25.5445 30.2644 24.211 30.2644C22.8774 30.2644 21.7964 29.1834 21.7964 27.8499C21.7964 26.5163 22.8774 25.4353 24.211 25.4353C25.5445 25.4353 26.6255 26.5164 26.6255 27.8499Z" fill="white"/>
</svg>
